[gd_scene load_steps=6 format=2]

[ext_resource path="res://Props/Spells/Firebolt/ExplodeParticle.png" type="Texture" id=1]
[ext_resource path="res://Props/Treasures/PowerOrbs/PowerOrbs.cs" type="Script" id=2]

[sub_resource type="CircleShape2D" id=1]
radius = 23.9071

[sub_resource type="Animation" id=2]
resource_name = "Die"
length = 0.1
tracks/0/type = "value"
tracks/0/path = NodePath(".:scale")
tracks/0/interp = 1
tracks/0/loop_wrap = true
tracks/0/imported = false
tracks/0/enabled = true
tracks/0/keys = {
"times": PoolRealArray( 0, 0.1 ),
"transitions": PoolRealArray( 1, 1 ),
"update": 0,
"values": [ Vector2( 1, 1 ), Vector2( 0, 0 ) ]
}

[sub_resource type="Animation" id=3]
resource_name = "Start"
length = 0.3
tracks/0/type = "value"
tracks/0/path = NodePath(".:scale")
tracks/0/interp = 1
tracks/0/loop_wrap = true
tracks/0/imported = false
tracks/0/enabled = true
tracks/0/keys = {
"times": PoolRealArray( 0, 0.3 ),
"transitions": PoolRealArray( 1, 1 ),
"update": 0,
"values": [ Vector2( 0, 0 ), Vector2( 1, 1 ) ]
}

[node name="PowerOrbs" type="Area2D"]
script = ExtResource( 2 )

[node name="CPUParticles2D" type="CPUParticles2D" parent="."]
amount = 3
speed_scale = 8.0
randomness = 0.6
lifetime_randomness = 0.71
texture = ExtResource( 1 )
emission_shape = 1
emission_sphere_radius = 20.0
spread = 180.0
gravity = Vector2( 0, 0 )
color = Color( 1, 1, 1, 0.364706 )

[node name="CollisionShape2D" type="CollisionShape2D" parent="."]
visible = false
shape = SubResource( 1 )

[node name="Anim" type="AnimationPlayer" parent="."]
anims/Die = SubResource( 2 )
anims/Start = SubResource( 3 )
[connection signal="body_entered" from="." to="." method="OnBodyEntered"]
