[gd_scene load_steps=4 format=2]

[ext_resource path="res://Actors/ActorSpellManager.cs" type="Script" id=1]
[ext_resource path="res://Actors/Actor.cs" type="Script" id=2]
[ext_resource path="res://Actors/ActorDamageHandler.cs" type="Script" id=3]

[node name="Actor" type="Node2D"]
script = ExtResource( 2 )
__meta__ = {
"_edit_group_": true
}

[node name="SpellManager" type="Node2D" parent="."]
script = ExtResource( 1 )

[node name="CoyoteTimer" type="Timer" parent="."]
wait_time = 0.1
one_shot = true

[node name="DamageHandler" type="Node" parent="."]
script = ExtResource( 3 )

[node name="HurtModTimer" type="Timer" parent="."]
wait_time = 0.01
one_shot = true

[node name="SpellCooldownTimer" type="Timer" parent="."]
wait_time = 0.2
one_shot = true

[node name="ArtefactCooldownTimer" type="Timer" parent="."]
wait_time = 5.0
one_shot = true
