[gd_resource type="DynamicFont" load_steps=2 format=2]

[ext_resource path="res://Stages/World/HUD/DialogueControl/saydo.ttf" type="DynamicFontData" id=1]

[resource]
size = 20
outline_size = 3
outline_color = Color( 0, 0, 0, 1 )
font_data = ExtResource( 1 )
