[gd_scene load_steps=7 format=2]

[ext_resource path="res://Props/Spells/Firebolt/ExplodeParticle.png" type="Texture" id=1]
[ext_resource path="res://Props/Spells/SpellDamage.cs" type="Script" id=2]

[sub_resource type="CapsuleShape2D" id=1]
radius = 9.71837
height = 37.8287

[sub_resource type="Curve" id=2]
max_value = 5.0
_data = [ Vector2( 0.00574712, 0.737146 ), 0.0, 5.02588, 0, 0, Vector2( 0.666667, 3.86364 ), 8.22546, 8.22546, 0, 0, Vector2( 0.977011, 1 ), 0.0, 0.0, 0, 0 ]

[sub_resource type="Gradient" id=3]
offsets = PoolRealArray( 0.00662252, 0.331126, 0.993378 )
colors = PoolColorArray( 0.686275, 0.196078, 0.180392, 0.192157, 0.835294, 0.384314, 0.294118, 0.231373, 1, 1, 1, 1 )

[sub_resource type="Animation" id=4]
resource_name = "Die"
length = 0.3
tracks/0/type = "value"
tracks/0/path = NodePath("Particles:emitting")
tracks/0/interp = 1
tracks/0/loop_wrap = true
tracks/0/imported = false
tracks/0/enabled = true
tracks/0/keys = {
"times": PoolRealArray( 0, 0.2 ),
"transitions": PoolRealArray( 1, 1 ),
"update": 1,
"values": [ true, false ]
}
tracks/1/type = "value"
tracks/1/path = NodePath("Particles:anim_speed")
tracks/1/interp = 1
tracks/1/loop_wrap = true
tracks/1/imported = false
tracks/1/enabled = false
tracks/1/keys = {
"times": PoolRealArray( 0.1 ),
"transitions": PoolRealArray( 1 ),
"update": 0,
"values": [ 0.0 ]
}
tracks/2/type = "value"
tracks/2/path = NodePath("Particles:speed_scale")
tracks/2/interp = 1
tracks/2/loop_wrap = true
tracks/2/imported = false
tracks/2/enabled = false
tracks/2/keys = {
"times": PoolRealArray( 0, 0.1 ),
"transitions": PoolRealArray( 1, 1 ),
"update": 0,
"values": [ 2.5, 20.0 ]
}
tracks/3/type = "value"
tracks/3/path = NodePath(".:scale")
tracks/3/interp = 1
tracks/3/loop_wrap = true
tracks/3/imported = false
tracks/3/enabled = false
tracks/3/keys = {
"times": PoolRealArray( 0, 0.3 ),
"transitions": PoolRealArray( 1, 1 ),
"update": 0,
"values": [ Vector2( 1, 1 ), Vector2( 0, 0 ) ]
}
tracks/4/type = "value"
tracks/4/path = NodePath(".:modulate")
tracks/4/interp = 1
tracks/4/loop_wrap = true
tracks/4/imported = false
tracks/4/enabled = true
tracks/4/keys = {
"times": PoolRealArray( 0, 0.3 ),
"transitions": PoolRealArray( 1, 1 ),
"update": 0,
"values": [ Color( 1, 1, 1, 1 ), Color( 1, 1, 1, 0 ) ]
}

[node name="SpellFireBolt" type="Area2D"]
position = Vector2( 250.016, 123.024 )
z_index = 1
collision_layer = 5
collision_mask = 3
script = ExtResource( 2 )

[node name="Shape" type="CollisionShape2D" parent="."]
position = Vector2( 27.7795, 0 )
rotation = 1.5708
shape = SubResource( 1 )

[node name="Particles" type="CPUParticles2D" parent="."]
position = Vector2( -0.793701, 0 )
speed_scale = 2.5
texture = ExtResource( 1 )
emission_shape = 1
emission_sphere_radius = 3.0
spread = 0.0
gravity = Vector2( 0, 0 )
initial_velocity = 10.0
linear_accel = 100.0
angle = 45.0
angle_random = 0.5
scale_amount = 0.8
scale_amount_curve = SubResource( 2 )
color_ramp = SubResource( 3 )

[node name="Anim" type="AnimationPlayer" parent="."]
anims/Die = SubResource( 4 )

[node name="CooldownTimer" type="Timer" parent="."]

[node name="SoundPlayer" type="AudioStreamPlayer2D" parent="."]
[connection signal="body_entered" from="." to="." method="OnSpellBodyEntered"]
