[gd_scene load_steps=7 format=2]

[ext_resource path="res://Global/SceneManager/rect_black.png" type="Texture" id=1]
[ext_resource path="res://Common/Nodes/PictureStory/PictureStory.cs" type="Script" id=3]
[ext_resource path="res://Common/UI/Fonts/SayDo/SayDo36.tres" type="DynamicFont" id=4]

[sub_resource type="Animation" id=1]
resource_name = "FadeIn"
tracks/0/type = "value"
tracks/0/path = NodePath("Current:modulate")
tracks/0/interp = 1
tracks/0/loop_wrap = true
tracks/0/imported = false
tracks/0/enabled = true
tracks/0/keys = {
"times": PoolRealArray( 0, 1 ),
"transitions": PoolRealArray( 1, 1 ),
"update": 0,
"values": [ Color( 1, 1, 1, 0 ), Color( 1, 1, 1, 1 ) ]
}

[sub_resource type="Animation" id=2]
resource_name = "FadeInOut"
tracks/0/type = "value"
tracks/0/path = NodePath("Prev:modulate")
tracks/0/interp = 1
tracks/0/loop_wrap = true
tracks/0/imported = false
tracks/0/enabled = true
tracks/0/keys = {
"times": PoolRealArray( 0.1, 1 ),
"transitions": PoolRealArray( 1, 1 ),
"update": 0,
"values": [ Color( 1, 1, 1, 1 ), Color( 1, 1, 1, 0 ) ]
}
tracks/1/type = "value"
tracks/1/path = NodePath("Current:modulate")
tracks/1/interp = 1
tracks/1/loop_wrap = true
tracks/1/imported = false
tracks/1/enabled = true
tracks/1/keys = {
"times": PoolRealArray( 0.1, 1 ),
"transitions": PoolRealArray( 1, 1 ),
"update": 0,
"values": [ Color( 1, 1, 1, 0 ), Color( 1, 1, 1, 1 ) ]
}

[sub_resource type="Animation" id=3]
resource_name = "FadeOut"
tracks/0/type = "value"
tracks/0/path = NodePath(".:modulate")
tracks/0/interp = 1
tracks/0/loop_wrap = true
tracks/0/imported = false
tracks/0/enabled = true
tracks/0/keys = {
"times": PoolRealArray( 0, 1 ),
"transitions": PoolRealArray( 1, 1 ),
"update": 0,
"values": [ Color( 1, 1, 1, 1 ), Color( 1, 1, 1, 0 ) ]
}

[node name="PictureStory" type="Control"]
pause_mode = 2
script = ExtResource( 3 )
__meta__ = {
"_edit_use_anchors_": false
}

[node name="TexBlack" type="TextureRect" parent="."]
margin_right = 978.0
margin_bottom = 560.0
texture = ExtResource( 1 )
expand = true
__meta__ = {
"_edit_use_anchors_": false
}

[node name="Prev" type="Control" parent="."]
visible = false
margin_right = 40.0
margin_bottom = 40.0
__meta__ = {
"_edit_use_anchors_": false
}

[node name="Background" type="TextureRect" parent="Prev"]
margin_right = 967.0
margin_bottom = 547.0
expand = true
__meta__ = {
"_edit_use_anchors_": false
}

[node name="LblText" type="Label" parent="Prev"]
margin_left = 10.0
margin_top = 10.0
margin_right = 947.0
margin_bottom = 523.0
custom_fonts/font = ExtResource( 4 )
align = 1
valign = 2
autowrap = true
__meta__ = {
"_edit_use_anchors_": false
}

[node name="Video" type="VideoPlayer" parent="Prev"]
margin_right = 956.0
margin_bottom = 538.0

[node name="Current" type="Control" parent="."]
modulate = Color( 1, 1, 1, 0 )
margin_right = 40.0
margin_bottom = 40.0
__meta__ = {
"_edit_use_anchors_": false
}

[node name="Background" type="TextureRect" parent="Current"]
margin_right = 967.0
margin_bottom = 547.0
expand = true
__meta__ = {
"_edit_use_anchors_": false
}

[node name="LblText" type="Label" parent="Current"]
margin_left = 10.0
margin_top = 10.0
margin_right = 947.0
margin_bottom = 523.0
custom_fonts/font = ExtResource( 4 )
align = 1
valign = 2
autowrap = true
__meta__ = {
"_edit_use_anchors_": false
}

[node name="Video" type="VideoPlayer" parent="Current"]
margin_right = 958.0
margin_bottom = 537.0

[node name="Anim" type="AnimationPlayer" parent="."]
anims/FadeIn = SubResource( 1 )
anims/FadeInOut = SubResource( 2 )
anims/FadeOut = SubResource( 3 )

[node name="SoundPlayer" type="AudioStreamPlayer" parent="."]
