[gd_scene load_steps=9 format=2]

[ext_resource path="res://Props/Checkpoint/ExplodeParticleWhite2.png" type="Texture" id=1]
[ext_resource path="res://Props/Treasures/TreasureDefault.tres" type="Animation" id=2]
[ext_resource path="res://Props/Treasures/Treasure.cs" type="Script" id=3]
[ext_resource path="res://Props/Treasures/SCROLLS POTIONS ARTEFACT.png" type="Texture" id=4]
[ext_resource path="res://Props/Treasures/ShapeTreasure.tres" type="Shape2D" id=5]

[sub_resource type="Curve" id=2]
max_value = 5.0
_data = [ Vector2( 0.00574712, 0.737146 ), 0.0, 5.02588, 0, 0, Vector2( 0.666667, 3.86364 ), 8.22546, 8.22546, 0, 0, Vector2( 0.977011, 1 ), 0.0, 0.0, 0, 0 ]

[sub_resource type="Gradient" id=3]
offsets = PoolRealArray( 0.0264901 )
colors = PoolColorArray( 0, 0.0392157, 1, 1 )

[sub_resource type="Animation" id=4]
length = 0.5
tracks/0/type = "value"
tracks/0/path = NodePath("Sprite:modulate")
tracks/0/interp = 1
tracks/0/loop_wrap = true
tracks/0/imported = false
tracks/0/enabled = true
tracks/0/keys = {
"times": PoolRealArray( 0, 0.5 ),
"transitions": PoolRealArray( 1, 1 ),
"update": 0,
"values": [ Color( 1, 1, 1, 1 ), Color( 1, 1, 1, 0 ) ]
}

[node name="BlinkTreasure" type="Area2D"]
position = Vector2( 0, 10 )
script = ExtResource( 3 )
_treasureType = 2

[node name="CollisionShape2D" type="CollisionShape2D" parent="."]
shape = ExtResource( 5 )

[node name="Sprite" type="Sprite" parent="."]
scale = Vector2( 0.2, 0.2 )
texture = ExtResource( 4 )
region_enabled = true
region_rect = Rect2( 2720, 20, 500, 500 )

[node name="Particles" type="CPUParticles2D" parent="Sprite"]
modulate = Color( 1, 1, 1, 0.290196 )
show_behind_parent = true
position = Vector2( -1.13386, 0 )
scale = Vector2( 1.42857, 1.42857 )
amount = 30
lifetime = 5.0
speed_scale = 10.0
texture = ExtResource( 1 )
emission_shape = 1
emission_sphere_radius = 60.0
spread = 0.0
gravity = Vector2( 0, 0 )
angle = 45.0
angle_random = 0.5
scale_amount_curve = SubResource( 2 )
color_ramp = SubResource( 3 )
hue_variation = 0.2
hue_variation_random = 1.0

[node name="Anim" type="AnimationPlayer" parent="."]
anims/Die = SubResource( 4 )

[node name="AnimMove" type="AnimationPlayer" parent="."]
autoplay = "TreasureDefault"
anims/TreasureDefault = ExtResource( 2 )
[connection signal="body_entered" from="." to="." method="OnTreasureBodyEntered"]
